\relax 
\@writefile{toc}{\contentsline {section}{\numberline {8.4}\discretionary {-}{}{}Controlling \& querying \discretionary {-}{}{}J\discretionary {-}{}{}A\discretionary {-}{}{}C\discretionary {-}{}{}K server operation}{38}{section.8.4}}
\newlabel{d9/d51/group__ServerClientControl}{{8.4}{38}{\-Controlling \& querying \-J\-A\-C\-K server operation\relax }{section.8.4}{}}
\@writefile{toc}{\contentsline {subsection}{\numberline {8.4.1}\discretionary {-}{}{}Function \discretionary {-}{}{}Documentation}{38}{subsection.8.4.1}}
\@writefile{toc}{\contentsline {subsubsection}{\numberline {8.4.1.1}jack\discretionary {-}{}{}\_\discretionary {-}{}{}cpu\discretionary {-}{}{}\_\discretionary {-}{}{}load}{38}{subsubsection.8.4.1.1}}
\newlabel{d9/d51/group__ServerClientControl_ga9136d56397ad4f394a8b169462f5683b}{{8.4.1.1}{38}{jack\-\_\-cpu\-\_\-load\relax }{subsubsection.8.4.1.1}{}}
\@writefile{toc}{\contentsline {subsubsection}{\numberline {8.4.1.2}jack\discretionary {-}{}{}\_\discretionary {-}{}{}engine\discretionary {-}{}{}\_\discretionary {-}{}{}takeover\discretionary {-}{}{}\_\discretionary {-}{}{}timebase}{38}{subsubsection.8.4.1.2}}
\newlabel{d9/d51/group__ServerClientControl_ga2db0a4e9ab7b6d9984e91abba27ab71d}{{8.4.1.2}{38}{jack\-\_\-engine\-\_\-takeover\-\_\-timebase\relax }{subsubsection.8.4.1.2}{}}
\gdef \LT@xlvii {\LT@entry 
    {1}{59.44409pt}\LT@entry 
    {1}{288.47205pt}}
\@writefile{toc}{\contentsline {subsubsection}{\numberline {8.4.1.3}jack\discretionary {-}{}{}\_\discretionary {-}{}{}get\discretionary {-}{}{}\_\discretionary {-}{}{}buffer\discretionary {-}{}{}\_\discretionary {-}{}{}size}{39}{subsubsection.8.4.1.3}}
\newlabel{d9/d51/group__ServerClientControl_gad1f5972836af7e72e6d79ed6bc53916f}{{8.4.1.3}{39}{jack\-\_\-get\-\_\-buffer\-\_\-size\relax }{subsubsection.8.4.1.3}{}}
\@writefile{toc}{\contentsline {subsubsection}{\numberline {8.4.1.4}jack\discretionary {-}{}{}\_\discretionary {-}{}{}get\discretionary {-}{}{}\_\discretionary {-}{}{}sample\discretionary {-}{}{}\_\discretionary {-}{}{}rate}{39}{subsubsection.8.4.1.4}}
\newlabel{d9/d51/group__ServerClientControl_ga62022d4f2fbfba065f0874a497afd3b4}{{8.4.1.4}{39}{jack\-\_\-get\-\_\-sample\-\_\-rate\relax }{subsubsection.8.4.1.4}{}}
\@writefile{toc}{\contentsline {subsubsection}{\numberline {8.4.1.5}jack\discretionary {-}{}{}\_\discretionary {-}{}{}set\discretionary {-}{}{}\_\discretionary {-}{}{}buffer\discretionary {-}{}{}\_\discretionary {-}{}{}size}{39}{subsubsection.8.4.1.5}}
\newlabel{d9/d51/group__ServerClientControl_gad96bda0901b924f5996e02e41a979685}{{8.4.1.5}{39}{jack\-\_\-set\-\_\-buffer\-\_\-size\relax }{subsubsection.8.4.1.5}{}}
\gdef \LT@xlviii {\LT@entry 
    {1}{59.44409pt}\LT@entry 
    {1}{288.47205pt}}
\@writefile{toc}{\contentsline {subsubsection}{\numberline {8.4.1.6}jack\discretionary {-}{}{}\_\discretionary {-}{}{}set\discretionary {-}{}{}\_\discretionary {-}{}{}freewheel}{40}{subsubsection.8.4.1.6}}
\newlabel{d9/d51/group__ServerClientControl_gad65c741a1d1d2fb09efacf51437b841a}{{8.4.1.6}{40}{jack\-\_\-set\-\_\-freewheel\relax }{subsubsection.8.4.1.6}{}}
\@setckpt{d9/d51/group__ServerClientControl}{
\setcounter{page}{41}
\setcounter{equation}{0}
\setcounter{enumi}{0}
\setcounter{enumii}{0}
\setcounter{enumiii}{0}
\setcounter{enumiv}{0}
\setcounter{footnote}{0}
\setcounter{mpfootnote}{0}
\setcounter{part}{0}
\setcounter{chapter}{8}
\setcounter{section}{4}
\setcounter{subsection}{1}
\setcounter{subsubsection}{6}
\setcounter{paragraph}{0}
\setcounter{subparagraph}{0}
\setcounter{figure}{0}
\setcounter{table}{48}
\setcounter{NAT@ctr}{0}
\setcounter{float@type}{8}
\setcounter{lstnumber}{1}
\setcounter{Item}{0}
\setcounter{Hfootnote}{0}
\setcounter{bookmark@seq@number}{85}
\setcounter{lofdepth}{1}
\setcounter{lotdepth}{1}
\setcounter{LT@tables}{48}
\setcounter{LT@chunks}{1}
\setcounter{lstlisting}{0}
\setcounter{section@level}{3}
}
